…
``` r
summarise_all(mtcars, ~mean(.) / sd(.))
```

    ##        mpg      cyl     disp      hp     drat       wt     qsec        vs
    ## 1 3.333466 3.464598 1.861581 2.13946 6.726586 3.288084 9.988426 0.8680278
    ##          am     gear    carb
    ## 1 0.8141431 4.997939 1.74127

``` r
# Rows where any value is missing
filter_all(nycflights13::weather, any_vars(is.na(.)))
```

    ## # A tibble: 3,109 x 15
    ##    origin  year month   day  hour  temp  dewp humid wind_dir wind_speed
    ##     <chr> <dbl> <dbl> <int> <int> <dbl> <dbl> <dbl>    <dbl>      <dbl>
    ##  1    EWR  2013     1     1    17 39.20 28.40 64.93      270   16.11092
    ##  2    EWR  2013     1     1    18 39.20 28.40 64.93      330   14.96014
    ##  3    EWR  2013     1     3    16 30.92 14.00 49.01       NA    4.60312
    ##  4    EWR  2013     1     6    10 33.80 30.20 86.49      210    4.60312
    ##  5    EWR  2013     1     6    12 33.80 32.00 93.03      220    9.20624
    ##  6    EWR  2013     1     6    13 35.60 32.00 86.59      240    8.05546
    ##  7    EWR  2013     1     6    14 35.60 32.00 86.59      230    8.05546
    ##  8    EWR  2013     1     6    15 37.40 30.20 74.98      250   11.50780
    ##  9    EWR  2013     1    11    17 44.96 35.96 70.52       NA    4.60312
    ## 10    EWR  2013     1    11    21 46.40 39.20 75.84       90    4.60312
    ## # ... with 3,099 more rows, and 5 more variables: wind_gust <dbl>,
    ## #   precip <dbl>, pressure <dbl>, visib <dbl>, time_hour <dttm>

``` r
# mutate_all would not work in the next line, we must add mutate_if
nycflights13::weather %>% mutate_if(., is.numeric, ~round(., digits = 2))
```

    ## # A tibble: 26,130 x 15
    ##    origin  year month   day  hour  temp  dewp humid wind_dir wind_speed
    ##     <chr> <dbl> <dbl> <dbl> <dbl> <dbl> <dbl> <dbl>    <dbl>      <dbl>
    ##  1    EWR  2013     1     1     0 37.04 21.92 53.97      230      10.36
    ##  2    EWR  2013     1     1     1 37.04 21.92 53.97      230      13.81
    ##  3    EWR  2013     1     1     2 37.94 21.92 52.09      230      12.66
    ##  4    EWR  2013     1     1     3 37.94 23.00 54.51      230      13.81
    ##  5    EWR  2013     1     1     4 37.94 24.08 57.04      240      14.96
    ##  6    EWR  2013     1     1     6 39.02 26.06 59.37      270      10.36
    ##  7    EWR  2013     1     1     7 39.02 26.96 61.63      250       8.06
    ##  8    EWR  2013     1     1     8 39.02 28.04 64.43      240      11.51
    ##  9    EWR  2013     1     1     9 39.92 28.04 62.21      250      12.66
    ## 10    EWR  2013     1     1    10 39.02 28.04 64.43      260      12.66
    ## # ... with 26,120 more rows, and 5 more variables: wind_gust <dbl>,
    ## #   precip <dbl>, pressure <dbl>, visib <dbl>, time_hour <dttm>
…
